{
    "address": "localhost",
    "port": 6666,
    "endl": "\r\n",
    "init": [
        "USER botname botname botname :Bot\r\n",
        "NICK botname\r\n",
        "JOIN #CHANELS\r\n"
    ],
    "patterns": [
        ["PING ([^ ]*)$", "PONG %{0}"],
        ["TEST (.*) ([0-9]*)$", "ANS %{1} %{0} %{0}%{1}"]
    ]
}
